<svg width="16" height="21" viewBox="0 0 16 21" fill="none" xmlns="http://www.w3.org/2000/svg">
<path d="M1 17.3793V3.44824C1 2.34367 1.89543 1.44824 3 1.44824H9.23722C9.77263 1.44824 10.2857 1.66292 10.6616 2.04422L14.4243 5.86142C14.7932 6.23563 15 6.73998 15 7.26544V17.3793C15 18.4838 14.1046 19.3793 13 19.3793H3C1.89543 19.3793 1 18.4838 1 17.3793Z" stroke="#687590" stroke-width="1.5" stroke-linecap="round" stroke-linejoin="round"/>
</svg>
