<svg width="17" height="14" viewBox="0 0 17 14" fill="none" xmlns="http://www.w3.org/2000/svg">
<path d="M5 1H16M5 7H16M5 13H16M1 1V1.01M1 7V7.01M1 13V13.01" stroke="#3185FC" stroke-width="2" stroke-linecap="round" stroke-linejoin="round"/>
</svg>
